{
  "start_date": "2026-02-04",
  "end_date": "2026-02-05",
  "elasticsearch_url": "https://pluto-elk.ibusiness.co.th",
  "datalake_index": "cyber-logs-datalake",
  "warehouse_index": "cyber-logs-datawarehouse",
  "results": [
    {
      "name": "executive_dashboard",
      "method": "GET",
      "path": "/api/v1/executive/dashboard?start_date=2026-02-04&end_date=2026-02-05",
      "status_code": 200,
      "meta": {
        "generated_at": "2026-03-11T09:54:28.466620Z",
        "timezone": "Asia/Bangkok"
      },
      "error": null,
      "sample_keys": [
        "attack_origin_map",
        "attack_volume_trend",
        "exposure_today",
        "severity_distribution",
        "threat_level",
        "threat_volume_severity"
      ]
    },
    {
      "name": "operations_dashboard",
      "method": "GET",
      "path": "/api/v1/operations/dashboard?start_date=2026-02-04&end_date=2026-02-05",
      "status_code": 200,
      "meta": {
        "generated_at": "2026-03-11T09:54:29.455329Z",
        "timezone": "Asia/Bangkok"
      },
      "error": null,
      "sample_keys": [
        "attack_time_heatmap",
        "incident_by_severity",
        "overview",
        "target_sectors",
        "top_attack_origins",
        "top_intelligence_sources",
        "top_threat_types"
      ]
    },
    {
      "name": "operations_report",
      "method": "GET",
      "path": "/api/v1/operations/reports/attack-origin?start_date=2026-02-04&end_date=2026-02-05",
      "status_code": 200,
      "meta": {
        "generated_at": "2026-03-11T09:54:30.424755Z",
        "timezone": "Asia/Bangkok"
      },
      "error": null,
      "sample_keys": [
        "filters",
        "ranking",
        "report_key",
        "severity_distribution",
        "summary",
        "title",
        "top_chart",
        "trend_comparison"
      ]
    },
    {
      "name": "attack_time_report",
      "method": "GET",
      "path": "/api/v1/operations/attack-time-report?start_date=2026-02-04&end_date=2026-02-05",
      "status_code": 200,
      "meta": {
        "generated_at": "2026-03-11T09:54:30.542958Z",
        "timezone": "Asia/Bangkok",
        "page": 1,
        "page_size": 20,
        "total": 463,
        "total_pages": 24
      },
      "error": null,
      "sample_keys": [
        "events",
        "filters",
        "heatmap",
        "summary"
      ]
    },
    {
      "name": "actions",
      "method": "GET",
      "path": "/api/v1/actions?start_date=2026-02-04&end_date=2026-02-05",
      "status_code": 200,
      "meta": {
        "generated_at": "2026-03-11T09:54:31.148983Z",
        "timezone": "Asia/Bangkok",
        "page": 1,
        "page_size": 20,
        "total": 43,
        "total_pages": 3
      },
      "error": null,
      "sample_keys": [
        "facets",
        "items",
        "summary"
      ],
      "sample_item_count": 20
    },
    {
      "name": "iocs",
      "method": "GET",
      "path": "/api/v1/iocs?start_date=2026-02-04&end_date=2026-02-05",
      "status_code": 200,
      "meta": {
        "generated_at": "2026-03-11T09:54:31.736163Z",
        "timezone": "Asia/Bangkok",
        "page": 1,
        "page_size": 20,
        "total": 391,
        "total_pages": 20
      },
      "error": null,
      "sample_keys": [
        "facets",
        "items",
        "quick_filters",
        "summary"
      ],
      "sample_item_count": 20
    },
    {
      "name": "ioc_analytics",
      "method": "GET",
      "path": "/api/v1/ioc-analytics?tab=ioc-summary&start_date=2026-02-04&end_date=2026-02-05",
      "status_code": 200,
      "meta": {
        "generated_at": "2026-03-11T09:54:32.574766Z",
        "timezone": "Asia/Bangkok"
      },
      "error": null,
      "sample_keys": [
        "cards",
        "charts",
        "tab"
      ]
    },
    {
      "name": "news",
      "method": "GET",
      "path": "/api/v1/news?start_date=2026-02-04&end_date=2026-02-05",
      "status_code": 200,
      "meta": {
        "generated_at": "2026-03-11T09:54:32.694968Z",
        "timezone": "Asia/Bangkok",
        "page": 1,
        "page_size": 20,
        "total": 62,
        "total_pages": 4
      },
      "error": null,
      "sample_keys": [
        "items"
      ],
      "sample_item_count": 20
    },
    {
      "name": "action_detail",
      "method": "GET",
      "path": "/api/v1/actions/domain:783668eb25290a4f6db25e27",
      "status_code": 200,
      "meta": {
        "generated_at": "2026-03-11T09:54:32.848939Z",
        "timezone": "Asia/Bangkok"
      },
      "error": null,
      "sample_keys": [
        "action",
        "activity_log",
        "available_actions",
        "context",
        "evidence_graph",
        "notes",
        "owner",
        "related_evidence",
        "related_evidence_graph",
        "related_ioc_count",
        "remediation_plan"
      ]
    }
  ]
}